<<<<<<< HEAD
Tue Aug  6 20:17:18 CEST 2019
Preloading tcmalloc_minimal.so
Py:Athena            INFO including file "AthenaCommon/Preparation.py"
Py:Athena            INFO using release [WorkDir-22.0.3] [x86_64-centos7-gcc8-opt] [atlas-work3/da00b53be39] -- built on [2019-08-06T1723]
Py:Athena            INFO including file "AthenaCommon/Atlas.UnixStandardJob.py"
=======
Mon May 23 17:15:39 CEST 2016
Preloading tcmalloc_minimal.so
Py:Athena            INFO including file "AthenaCommon/Preparation.py"
Py:Athena            INFO using release [WorkDir-21.0.0] [x86_64-slc6-gcc49-dbg] [private/private] -- built on [2016-05-23 17:13]
Py:Athena            INFO including file "AthenaCommon/Bootstrap.py"
Py:Athena            INFO including file "AthenaCommon/Atlas.UnixStandardJob.py"
Warning in <TInterpreter::ReadRootmapFile>: class  Event found in libG4AtlasControlDict.so  is already in libtest_GPyTestDict.so 
Warning in <TInterpreter::ReadRootmapFile>: class  UCharDbArray found in libStorageSvcDict.so  is already in libRootCnvDict.so 
>>>>>>> release/21.0.127
Py:Athena            INFO executing ROOT6Setup
Py:Athena            INFO including file "AthenaCommon/Execution.py"
Py:Athena            INFO including file "CaloAthenaPool/CaloTPCnv_15.1.0_test.py"
Py:Athena            INFO including file "AthenaPoolUtilities/TPCnvTest.py"
<<<<<<< HEAD
Py:ConfigurableDb    INFO Read module info for 5520 configurables from 75 genConfDb files
Py:ConfigurableDb    INFO No duplicates have been found: that's good !
Py:Athena            INFO including file "IdDictDetDescrCnv/IdDictDetDescrCnv_joboptions.py"
EventInfoMgtInit: Got release version  Athena-22.0.3
Py:IOVDbSvc.CondDB    INFO Setting up conditions DB access to instance OFLP200
SetGeometryVersion.py obtained major release version 22
Py:Athena            INFO including file "AthenaCommon/runbatch.py"
ApplicationMgr       INFO Updating Gaudi::PluginService::SetDebug(level) to level= 'PluginDebugLevel':0
ApplicationMgr       INFO Updating Gaudi::PluginService::SetDebug(level) to level= 'PluginDebugLevel':0
ApplicationMgr    SUCCESS 
====================================================================================================================================
                                                   Welcome to ApplicationMgr (GaudiCoreSvc v32r0)
                                          running on lxplus724.cern.ch on Tue Aug  6 20:18:06 2019
=======
Py:ConfigurableDb    INFO Read module info for 5012 configurables from 9 genConfDb files
Py:ConfigurableDb WARNING Found 1 duplicates among the 9 genConfDb files :
Py:ConfigurableDb WARNING --------------------------------------------------
Py:ConfigurableDb WARNING   -<component name>: <module> - [ <duplicates> ]
Py:ConfigurableDb WARNING --------------------------------------------------
Py:ConfigurableDb WARNING   -D3PD__TrigConfMetadataTool: TriggerD3PDMaker.TriggerD3PDMakerConf - ['TrigCostD3PDMaker.TrigCostD3PDMakerConf']
Py:ConfigurableDb WARNING Fix your cmt/requirements file !!
Py:Athena            INFO including file "IdDictDetDescrCnv/IdDictDetDescrCnv_joboptions.py"
EventInfoMgtInit: Got release version  AtlasOffline-rel_1
Py:IOVDbSvc.CondDB    INFO Setting up conditions DB access to instance OFLP200
Data source lookup using /afs/cern.ch/atlas/software/builds/nightlies/devval/AtlasCore/rel_1/InstallArea/x86_64-slc6-gcc49-dbg/XML/AtlasAuthentication/dblookup.xml file
SetGeometryVersion.py obtained major release version 21
Py:Athena            INFO including file "AthenaCommon/runbatch.py"
ApplicationMgr       INFO Updating Gaudi::PluginService::SetDebug(level) to level= 'PluginDebugLevel':0
ApplicationMgr    SUCCESS 
====================================================================================================================================
                                                   Welcome to ApplicationMgr (GaudiCoreSvc v4r1)
                                          running on lxplus024.cern.ch on Mon May 23 17:17:09 2016
>>>>>>> release/21.0.127
====================================================================================================================================
ApplicationMgr       INFO Application Manager Configured successfully
ApplicationMgr       INFO Updating Gaudi::PluginService::SetDebug(level) to level= 'PluginDebugLevel':0
StatusCodeSvc        INFO initialize
<<<<<<< HEAD
JobIDSvc             INFO Initializing JobIDSvc - package version AthenaServices-00-00-00
AthDictLoaderSvc     INFO in initialize...
AthDictLoaderSvc     INFO acquired Dso-registry
ClassIDSvc           INFO  getRegistryEntries: read 7280 CLIDRegistry entries for module ALL
CoreDumpSvc          INFO install f-a-t-a-l handler... (flag = -1)
CoreDumpSvc          INFO Handling signals: 11(Segmentation fault) 7(Bus error) 4(Illegal instruction) 8(Floating point exception) 
MetaDataSvc          INFO Initializing MetaDataSvc - package version AthenaServices-00-00-00
AthenaPoolCnvSvc     INFO Initializing AthenaPoolCnvSvc - package version AthenaPoolCnvSvc-00-00-00
PoolSvc              INFO io_register[PoolSvc](xmlcatalog_file:PoolFileCatalog.xml) [ok]
PoolSvc              INFO Set connectionsvc retry/timeout/IDLE timeout to  'ConnectionRetrialPeriod':300/ 'ConnectionRetrialTimeOut':3600/ 'ConnectionTimeOut':5 seconds with connection cleanup disabled
PoolSvc              INFO Frontier compression level set to 5
DBReplicaSvc         INFO Frontier server at (serverurl=http://atlasfrontier-local.cern.ch:8000/atlr)(serverurl=http://atlasfrontier-ai.cern.ch:8000/atlr)(serverurl=http://lcgft-atlas.gridpp.rl.ac.uk:3128/frontierATLAS)(serverurl=http://ccfrontier.in2p3.fr:23128/ccin2p3-AtlasFrontier)(proxyurl=http://ca-proxy.cern.ch:3128)(proxyurl=http://ca-proxy-meyrin.cern.ch:3128)(proxyurl=http://ca-proxy-wigner.cern.ch:3128)(proxyurl=http://atlasbpfrontier.cern.ch:3127)(proxyurl=http://atlasbpfrontier.fnal.gov:3127) will be considered for COOL data
DBReplicaSvc         INFO Read replica configuration from /cvmfs/atlas-nightlies.cern.ch/repo/sw/master/2019-08-05T2130/Athena/22.0.3/InstallArea/x86_64-centos7-gcc8-opt/share/dbreplica.config
DBReplicaSvc         INFO Total of 10 servers found for host lxplus724.cern.ch [ATLF ATLAS_COOLPROD atlas_dd ATLAS_CONFIG INT8R INTR ATONR_COOL ATONR_CONF DEVDB11 ATLF ]
PoolSvc              INFO Successfully setup replica sorting algorithm
PoolSvc              INFO Setting up APR FileCatalog and Streams
PoolSvc           WARNING Unable to locate catalog for prfile:poolcond/PoolCat_oflcond.xml check your ATLAS_POOLCOND_PATH and DATAPATH variables
PoolSvc           WARNING Unable to locate catalog for apcfile:poolcond/PoolCat_oflcond.xml check your ATLAS_POOLCOND_PATH and DATAPATH variables
PoolSvc              INFO Resolved path (via ATLAS_POOLCOND_PATH) is /cvmfs/atlas-condb.cern.ch/repo/conditions/poolcond/PoolFileCatalog.xml
PoolSvc              INFO POOL WriteCatalog is xmlcatalog_file:PoolFileCatalog.xml
DbSession            INFO     Open     DbSession    
Domain[ROOT_All]     INFO >   Access   DbDomain     READ      [ROOT_All] 
MetaDataSvc          INFO Found MetaDataTools = PublicToolHandleArray(['IOVDbMetaDataTool'])
=======
JobIDSvc             INFO Initializing JobIDSvc - package version AthenaServices-01-60-14
AthDictLoaderSvc     INFO in initialize...
AthDictLoaderSvc     INFO acquired Dso-registry
ClassIDSvc           INFO Initializing ClassIDSvc - package version CLIDComps-00-06-20
ClassIDSvc           INFO  getRegistryEntries: read 5111 CLIDRegistry entries for module ALL
ChronoStatSvc        INFO  Number of skipped events for MemStat-1
CoreDumpSvc          INFO install f-a-t-a-l handler... (flag = -1)
CoreDumpSvc          INFO Handling signals: 11(Segmentation fault) 7(Bus error) 4(Illegal instruction) 8(Floating point exception) 
DetectorStore        INFO Initializing DetectorStore - package version StoreGate-03-06-43
MetaDataSvc          INFO Initializing MetaDataSvc - package version AthenaServices-01-60-14
InputMetaDataStore   INFO Initializing InputMetaDataStore - package version StoreGate-03-06-43
MetaDataStore        INFO Initializing MetaDataStore - package version StoreGate-03-06-43
AthenaPoolCnvSvc     INFO Initializing AthenaPoolCnvSvc - package version AthenaPoolCnvSvc-00-28-20
PoolSvc              INFO Initializing PoolSvc - package version PoolSvc-00-25-03
PoolSvc              INFO io_register[PoolSvc](xmlcatalog_file:PoolFileCatalog.xml) [ok]
PoolSvc              INFO Set connectionsvc retry/timeout/IDLE timeout to  'ConnectionRetrialPeriod':300/ 'ConnectionRetrialTimeOut':3600/ 'ConnectionTimeOut':5 seconds with connection cleanup disabled
PoolSvc              INFO Frontier compression level set to 5
DBReplicaSvc         INFO Frontier server at (serverurl=http://atlasfrontier-ai.cern.ch:8000/atlr)(serverurl=http://aiatlas036.cern.ch:8000/atlr)(serverurl=http://aiatlas034.cern.ch:8000/atlr)(serverurl=http://ccfrontier.in2p3.fr:23128/ccin2p3-AtlasFrontier)(serverurl=http://ccsqfatlasli02.in2p3.fr:23128/ccin2p3-AtlasFrontier)(serverurl=http://ccsqfatlasli01.in2p3.fr:23128/ccin2p3-AtlasFrontier)(proxyurl=http://ca-proxy.cern.ch:3128)(proxyurl=http://ca18.cern.ch:3128)(proxyurl=http://ca17.cern.ch:3128)(proxyurl=http://atlast0fsquid.cern.ch:3128)(proxyurl=http://atlassquid1.cern.ch:3128)(proxyurl=http://atlassquid2.cern.ch:3128)(proxyurl=http://atlassquid4.cern.ch:3128) will be considered for COOL data
DBReplicaSvc         INFO Read replica configuration from /afs/cern.ch/atlas/software/builds/nightlies/devval/AtlasCore/rel_1/InstallArea/x86_64-slc6-gcc49-dbg/share/dbreplica.config
DBReplicaSvc         INFO Total of 10 servers found for host lxplus024.cern.ch [ATLF ATLAS_COOLPROD atlas_dd ATLAS_CONFIG INT8R INTR ATONR_COOL ATONR_CONF DEVDB11 ATLF ]
PoolSvc              INFO Successfully setup replica sorting algorithm
PoolSvc              INFO Re-initializing PoolSvc
PoolSvc           WARNING Unable to locate catalog for prfile:poolcond/PoolCat_oflcond.xml via PathResolver, check your DATAPATH variable
PoolSvc              INFO Resolved path (via ATLAS_POOLCOND_PATH) is /afs/cern.ch/atlas/conditions/poolcond/catalogue/poolcond/PoolCat_oflcond.xml
PoolSvc              INFO POOL WriteCatalog is xmlcatalog_file:PoolFileCatalog.xml
XMLFileCatalog Info Connecting to the catalog
PoolXMLFileCatalog Info Xerces-c initialization Number 0
XMLFileCatalog Info Connecting to the catalog
PoolXMLFileCatalog Info File PoolFileCatalog.xml does not exist, a new one is created
PoolXMLFileCatalog Info Read-only filesystem
EventSelector        INFO Initializing EventSelector - package version EventSelectorAthenaPool-00-19-11
TagMetaDataStore     INFO Initializing TagMetaDataStore - package version StoreGate-03-06-43
EventSelector        INFO reinitialization...
>>>>>>> release/21.0.127
EventSelector        INFO EventSelection with query 
PoolSvc              INFO File is not in Catalog! Attempt to open it anyway.
Warning in <TClass::Init>: no dictionary for class CosmicMuonCollection_tlp1 is available
Warning in <TClass::Init>: no dictionary for class CosmicMuonCollection_p1 is available
Warning in <TClass::Init>: no dictionary for class CosmicMuon_p1 is available
Warning in <TClass::Init>: no dictionary for class MdtTrackSegmentCollection_tlp1 is available
Warning in <TClass::Init>: no dictionary for class MdtTrackSegmentCollection_p1 is available
Warning in <TClass::Init>: no dictionary for class MdtTrackSegment_p1 is available
DbSession            INFO     Open     DbSession    
Domain[ROOT_All]     INFO ->  Access   DbDatabase   READ      [ROOT_All] 294EEF64-C294-CD26-EF91-973094DE0909
Domain[ROOT_All]     INFO                           /cvmfs/atlas-nightlies.cern.ch/repo/data/data-art/aod/AOD-15.1.0/AOD-15.1.0-full.pool.root
RootDatabase.open    INFO /cvmfs/atlas-nightlies.cern.ch/repo/data/data-art/aod/AOD-15.1.0/AOD-15.1.0-full.pool.root File version:52200
/cvmfs/atlas-ni...   INFO Database being retired...
Domain[ROOT_All]     INFO ->  Deaccess DbDatabase   READ      [ROOT_All] 294EEF64-C294-CD26-EF91-973094DE0909
Domain[ROOT_All]     INFO >   Deaccess DbDomain     READ      [ROOT_All] 
PoolSvc              INFO File is not in Catalog! Attempt to open it anyway.
DbSession            INFO     Open     DbSession    
Domain[ROOT_All]     INFO >   Access   DbDomain     READ      [ROOT_All] 
Domain[ROOT_All]     INFO ->  Access   DbDatabase   READ      [ROOT_All] 294EEF64-C294-CD26-EF91-973094DE0909
Domain[ROOT_All]     INFO                           /cvmfs/atlas-nightlies.cern.ch/repo/data/data-art/aod/AOD-15.1.0/AOD-15.1.0-full.pool.root
RootDatabase.open    INFO /cvmfs/atlas-nightlies.cern.ch/repo/data/data-art/aod/AOD-15.1.0/AOD-15.1.0-full.pool.root File version:52200
/cvmfs/atlas-ni...   INFO Database being retired...
Domain[ROOT_All]     INFO ->  Deaccess DbDatabase   READ      [ROOT_All] 294EEF64-C294-CD26-EF91-973094DE0909
Domain[ROOT_All]     INFO >   Deaccess DbDomain     READ      [ROOT_All] 
DbSession            INFO     Open     DbSession    
Domain[ROOT_All]     INFO >   Access   DbDomain     READ      [ROOT_All] 
Domain[ROOT_All]     INFO ->  Access   DbDatabase   READ      [ROOT_All] 54C1827D-740E-DE11-83C7-000423D9A21A
Domain[ROOT_All]     INFO                           /cvmfs/atlas-nightlies.cern.ch/repo/data/data-art/aod/AOD-15.1.0/AOD-15.1.0-full.pool.root
RootDatabase.open    INFO /cvmfs/atlas-nightlies.cern.ch/repo/data/data-art/aod/AOD-15.1.0/AOD-15.1.0-full.pool.root File version:52200
PoolSvc              INFO Failed to find container POOLContainer(DataHeader) to create POOL collection.
ClassIDSvc           INFO  getRegistryEntries: read 27130 CLIDRegistry entries for module ALL
EventPersistenc...   INFO Added successfully Conversion service:AthenaPoolCnvSvc
<<<<<<< HEAD
ClassIDSvc           INFO  getRegistryEntries: read 5 CLIDRegistry entries for module ALL
=======
AthenaPoolAddre...   INFO Initializing AthenaPoolAddressProviderSvc - package version EventSelectorAthenaPool-00-19-11
>>>>>>> release/21.0.127
IOVDbSvc             INFO Opened read transaction for POOL PersistencySvc
IOVDbSvc             INFO Only 5 POOL conditions files will be open at once
IOVDbSvc             INFO Cache alignment will be done in 3 slices
IOVDbFolder          INFO Read from meta data only for folder /TagInfo
IOVDbSvc             INFO Initialised with 2 connections and 3 folders
IOVDbSvc             INFO Service IOVDbSvc initialised successfully
<<<<<<< HEAD
ClassIDSvc           INFO  getRegistryEntries: read 290 CLIDRegistry entries for module ALL
IOVDbSvc             INFO Found 8 metadata containers in input file, 0 will be used
IOVDbSvc             INFO preLoadAddresses: Removing folder /TagInfo. It should only be in the file meta data and was not found.
IOVDbSvc             INFO Opening COOL connection for COOLOFL_LAR/OFLP200
IOVSvc               INFO No IOVSvcTool associated with store "StoreGateSvc"
IOVSvc.IOVSvcTool    INFO IOVRanges will be checked at every Event
=======
ProxyProviderSvc     INFO Initializing ProxyProviderSvc - package version SGComps-00-02-08
IOVDbSvc             INFO Found 8 metadata containers in input file, 0 will be used
IOVDbSvc             INFO preLoadAddresses: Removing folder /TagInfo. It should only be in the file meta data and was not found.
IOVDbSvc             INFO Opening COOL connection for COOLOFL_LAR/OFLP200
CoralApplication Info Create a cool::CoralApplication...
CoralApplication Info Create a new own CORAL connection service
CoralApplication Info Create the COOL database service
RalDatabaseSvc Info Instantiate the RalDatabaseSvc
CoralApplication Info Create a cool::CoralApplication... DONE
RalSessionMgr Info Instantiate a R/O RalSessionMgr for 'COOLOFL_LAR/OFLP200'
RalSessionMgr Info Connect to the database server
RalSessionMgr Warning Use COOL_DISABLE_CORALCONNECTIONPOOLCLEANUP
CORAL/Services/ConnectionService Info ConnectionServiceConfiguration::setConnectionTimeOut 0
CORAL/Services/ConnectionService Info Re-ordering 3 replicas using installed algorithm
CORAL/Services/ConnectionService Info Sorting algorithm selected 4 replicas
CORAL/Services/ConnectionService Warning Failed to connect to service sqlite200/ALLP200.db (coral::Exception): 'CORAL/RelationalPlugins/sqlite ( CORAL : "Connection::connect" from "/afs/cern.ch/work/s/ssnyder/builds/atlas-work3e/build-x86_64-slc6-gcc49-dbg/Calorimeter/CaloCnv/CaloAthenaPool/unitTestRun/CaloTPCnv_15.1.0/sqlite200 is not writable" )' - do NOT retry
CORAL/Services/ConnectionService Info Connection to service "sqlite200/ALLP200.db" with connectionID=C#3 will be disconnected
CORAL/Services/ConnectionService Warning Failure while attempting to connect to "sqlite_file:sqlite200/ALLP200.db": CORAL/RelationalPlugins/sqlite ( CORAL : "Connection::connect" from "/afs/cern.ch/work/s/ssnyder/builds/atlas-work3e/build-x86_64-slc6-gcc49-dbg/Calorimeter/CaloCnv/CaloAthenaPool/unitTestRun/CaloTPCnv_15.1.0/sqlite200 is not writable" )
CORAL/RelationalPlugins/frontier Info The current compresion level is 5
CORAL/Services/ConnectionService Info New connection to service "ATLF/()" with connectionID=C#4 has been connected
CORAL/Services/ConnectionService Info New user session with sessionID=S#2(C#4.s#1) started on connectionID=C#4 to service "ATLF/()" for user "" in read-only mode
RalSessionMgr Info Start a read-only transaction active for the duration of the database connection
RelationalDatabase Info Instantiate a R/O RalDatabase for 'COOLOFL_LAR/OFLP200'
RelationalDatabase Info Release number backward compatibility - NO SCHEMA EVOLUTION REQUIRED: database with OLDER release number 2.7.0 will be opened using CURRENT client release number 3.1.3
StoreGateSvc         INFO Initializing StoreGateSvc - package version StoreGate-03-06-43
ConditionStore       INFO Initializing ConditionStore - package version StoreGate-03-06-43
IOVSvc               INFO No IOVSvcTool associated with store "StoreGateSvc"
IOVSvcTool           INFO IOVRanges will be checked at every Event
>>>>>>> release/21.0.127
IOVDbSvc             INFO Disconnecting from COOLOFL_LAR/OFLP200
ClassIDSvc           INFO  getRegistryEntries: read 54 CLIDRegistry entries for module ALL
ClassIDSvc           INFO  getRegistryEntries: read 12 CLIDRegistry entries for module ALL
DetDescrCnvSvc       INFO  initializing 
DetDescrCnvSvc       INFO Found DetectorStore service
DetDescrCnvSvc       INFO  filling proxies for detector managers 
DetDescrCnvSvc       INFO  filling address for CaloTTMgr with CLID 117659265 and storage type 68 to detector store 
DetDescrCnvSvc       INFO  filling address for CaloMgr with CLID 4548337 and storage type 68 to detector store 
DetDescrCnvSvc       INFO  filling address for CaloSuperCellMgr with CLID 241807251 and storage type 68 to detector store 
DetDescrCnvSvc       INFO  filling address for CaloIdManager with CLID 125856940 and storage type 68 to detector store 
DetDescrCnvSvc       INFO  filling address for LArIdManager with CLID 79554919 and storage type 68 to detector store 
DetDescrCnvSvc       INFO  filling address for IdDict with CLID 2411 and storage type 68 to detector store 
DetDescrCnvSvc       INFO  filling address for AtlasID with CLID 164875623 and storage type 68 to detector store 
DetDescrCnvSvc       INFO  filling address for PixelID with CLID 2516 and storage type 68 to detector store 
DetDescrCnvSvc       INFO  filling address for SCT_ID with CLID 2517 and storage type 68 to detector store 
DetDescrCnvSvc       INFO  filling address for TRT_ID with CLID 2518 and storage type 68 to detector store 
DetDescrCnvSvc       INFO  filling address for SiliconID with CLID 129452393 and storage type 68 to detector store 
DetDescrCnvSvc       INFO  filling address for LArEM_ID with CLID 163583365 and storage type 68 to detector store 
DetDescrCnvSvc       INFO  filling address for LArEM_SuperCell_ID with CLID 99488227 and storage type 68 to detector store 
DetDescrCnvSvc       INFO  filling address for LArHEC_ID with CLID 3870484 and storage type 68 to detector store 
DetDescrCnvSvc       INFO  filling address for LArHEC_SuperCell_ID with CLID 254277678 and storage type 68 to detector store 
DetDescrCnvSvc       INFO  filling address for LArFCAL_ID with CLID 45738051 and storage type 68 to detector store 
DetDescrCnvSvc       INFO  filling address for LArFCAL_SuperCell_ID with CLID 12829437 and storage type 68 to detector store 
DetDescrCnvSvc       INFO  filling address for LArMiniFCAL_ID with CLID 79264204 and storage type 68 to detector store 
DetDescrCnvSvc       INFO  filling address for LArOnlineID with CLID 158698068 and storage type 68 to detector store 
DetDescrCnvSvc       INFO  filling address for TTOnlineID with CLID 38321944 and storage type 68 to detector store 
DetDescrCnvSvc       INFO  filling address for LArOnline_SuperCellID with CLID 115600394 and storage type 68 to detector store 
DetDescrCnvSvc       INFO  filling address for LArHVLineID with CLID 27863673 and storage type 68 to detector store 
DetDescrCnvSvc       INFO  filling address for LArElectrodeID with CLID 80757351 and storage type 68 to detector store 
DetDescrCnvSvc       INFO  filling address for TileID with CLID 2901 and storage type 68 to detector store 
DetDescrCnvSvc       INFO  filling address for Tile_SuperCell_ID with CLID 49557789 and storage type 68 to detector store 
DetDescrCnvSvc       INFO  filling address for TileHWID with CLID 2902 and storage type 68 to detector store 
DetDescrCnvSvc       INFO  filling address for TileTBID with CLID 2903 and storage type 68 to detector store 
DetDescrCnvSvc       INFO  filling address for MDTIDHELPER with CLID 4170 and storage type 68 to detector store 
DetDescrCnvSvc       INFO  filling address for CSCIDHELPER with CLID 4171 and storage type 68 to detector store 
DetDescrCnvSvc       INFO  filling address for RPCIDHELPER with CLID 4172 and storage type 68 to detector store 
DetDescrCnvSvc       INFO  filling address for TGCIDHELPER with CLID 4173 and storage type 68 to detector store 
DetDescrCnvSvc       INFO  filling address for STGCIDHELPER with CLID 4174 and storage type 68 to detector store 
DetDescrCnvSvc       INFO  filling address for MMIDHELPER with CLID 4175 and storage type 68 to detector store 
DetDescrCnvSvc       INFO  filling address for CaloLVL1_ID with CLID 108133391 and storage type 68 to detector store 
DetDescrCnvSvc       INFO  filling address for CaloCell_ID with CLID 123500438 and storage type 68 to detector store 
DetDescrCnvSvc       INFO  filling address for CaloCell_SuperCell_ID with CLID 128365736 and storage type 68 to detector store 
DetDescrCnvSvc       INFO  filling address for CaloDM_ID with CLID 167756483 and storage type 68 to detector store 
DetDescrCnvSvc       INFO  filling address for ZdcID with CLID 190591643 and storage type 68 to detector store 
<<<<<<< HEAD
GeoModelSvc::RD...WARNING  Getting PixTBMatComponents with default tag
GeoModelSvc::RD...WARNING  Getting PixTBMaterials with default tag
GeoModelSvc::RD...WARNING  Getting InDetMatComponents with default tag
GeoModelSvc::RD...WARNING  Getting InDetMaterials with default tag
EventPersistenc...   INFO Added successfully Conversion service:DetDescrCnvSvc
LArElectrodeIDD...   INFO in createObj: creating a LArElectrodeID helper object in the detector store
=======
GeoModelSvc          INFO Retrieved DetectorTools = PrivateToolHandleArray(['LArDetectorToolNV/LArDetectorToolNV','TileDetectorTool/TileDetectorTool'])
CORAL/Services/ConnectionService Info Re-ordering 3 replicas using installed algorithm
CORAL/Services/ConnectionService Info Sorting algorithm selected 4 replicas
CORAL/Services/ConnectionService Warning Failed to connect to service geomDB/geomDB_sqlite (coral::Exception): 'CORAL/RelationalPlugins/sqlite ( CORAL : "Connection::connect" from "/afs/cern.ch/work/s/ssnyder/builds/atlas-work3e/build-x86_64-slc6-gcc49-dbg/Calorimeter/CaloCnv/CaloAthenaPool/unitTestRun/CaloTPCnv_15.1.0/geomDB is not writable" )' - do NOT retry
CORAL/Services/ConnectionService Info Connection to service "geomDB/geomDB_sqlite" with connectionID=C#5 will be disconnected
CORAL/Services/ConnectionService Warning Failure while attempting to connect to "sqlite_file:geomDB/geomDB_sqlite": CORAL/RelationalPlugins/sqlite ( CORAL : "Connection::connect" from "/afs/cern.ch/work/s/ssnyder/builds/atlas-work3e/build-x86_64-slc6-gcc49-dbg/Calorimeter/CaloCnv/CaloAthenaPool/unitTestRun/CaloTPCnv_15.1.0/geomDB is not writable" )
CORAL/RelationalPlugins/frontier Info The current compresion level is 5
CORAL/Services/ConnectionService Info New connection to service "ATLF/()" with connectionID=C#6 has been connected
CORAL/Services/ConnectionService Info New user session with sessionID=S#3(C#6.s#1) started on connectionID=C#6 to service "ATLF/()" for user "" in read-only mode
GeoModelSvc.LAr...   INFO Keys for LAr are ATLAS-R1-2012-03-01-00  ATLAS
GeoModelSvc.LAr...   INFO Building LAr version LAr-Revised-14 while ATLAS version is ATLAS-R1-2012-03-01-00
GeoModelSvc.LAr...   INFO LAr Geometry Options:
GeoModelSvc.LAr...   INFO   Sagging           = false
GeoModelSvc.LAr...   INFO   Barrel            = ON
GeoModelSvc.LAr...   INFO   Endcap            = ON
LAr::DetectorFa...   INFO  new description with barrel croystat bolts
LAr::DetectorFa...   INFO  new coil bumper description 
BarrelConstruction   INFO Getting primary numbers for ATLAS, ATLAS-R1-2012-03-01-00
BarrelConstruction   INFO   Makes detailed absorber sandwich  ? 1 1
BarrelConstruction   INFO   Use sagging in geometry  ? 0
============== EMEC Construction ===============
  multi-layered version of absorbers activated, mlabs == 1
================================================
EventPersistenc...   INFO Added successfully Conversion service:DetDescrCnvSvc
ClassIDSvc           INFO  getRegistryEntries: read 18226 CLIDRegistry entries for module ALL
CaloIDHelper_ID...   INFO in createObj: creating a TileTBID helper object in the detector store
>>>>>>> release/21.0.127
IdDictDetDescrCnv    INFO in initialize
IdDictDetDescrCnv    INFO in createObj: creating a IdDictManager object in the detector store
IdDictDetDescrCnv    INFO IdDictName:  IdDictParser/ATLAS_IDS.xml
IdDictDetDescrCnv    INFO Reading InnerDetector    IdDict file IdDictParser/IdDictInnerDetector.xml
IdDictDetDescrCnv    INFO Reading LArCalorimeter   IdDict file IdDictParser/IdDictLArCalorimeter_DC3-05-Comm-01.xml
IdDictDetDescrCnv    INFO Reading TileCalorimeter  IdDict file IdDictParser/IdDictTileCalorimeter.xml
IdDictDetDescrCnv    INFO Reading Calorimeter      IdDict file IdDictParser/IdDictCalorimeter_L1Onl.xml
IdDictDetDescrCnv    INFO Reading MuonSpectrometer IdDict file IdDictParser/IdDictMuonSpectrometer_R.01.xml
IdDictDetDescrCnv    INFO Reading ForwardDetectors IdDict file IdDictParser/IdDictForwardDetectors_2010.xml
IdDictDetDescrCnv    INFO Found id dicts:
IdDictDetDescrCnv    INFO Using dictionary tag: destaged_layout
IdDictDetDescrCnv    INFO Dictionary ATLAS                version default              DetDescr tag (using default) file 
IdDictDetDescrCnv    INFO Dictionary Calorimeter          version default              DetDescr tag CaloIdentifier-LVL1-02 file IdDictParser/IdDictCalorimeter_L1Onl.xml
IdDictDetDescrCnv    INFO Dictionary ForwardDetectors     version default              DetDescr tag ForDetIdentifier-01       file IdDictParser/IdDictForwardDetectors_2010.xml
IdDictDetDescrCnv    INFO Dictionary InnerDetector        version default              DetDescr tag InDetIdentifier-05        file IdDictParser/IdDictInnerDetector.xml
IdDictDetDescrCnv    INFO Dictionary LArCalorimeter       version fullAtlas            DetDescr tag LArIdentifier-DC3-05-Comm file IdDictParser/IdDictLArCalorimeter_DC3-05-Comm-01.xml
IdDictDetDescrCnv    INFO Dictionary LArElectrode         version fullAtlas            DetDescr tag (using default) file 
IdDictDetDescrCnv    INFO Dictionary LArHighVoltage       version fullAtlas            DetDescr tag (using default) file 
IdDictDetDescrCnv    INFO Dictionary MuonSpectrometer     version R.01                 DetDescr tag MuonIdentifier-02         file IdDictParser/IdDictMuonSpectrometer_R.01.xml
IdDictDetDescrCnv    INFO Dictionary TileCalorimeter      version fullAtlasAndTestBeam DetDescr tag TileIdentifier-00         file IdDictParser/IdDictTileCalorimeter.xml
LArElectrodeID       INFO  => initialize_from_dictionary()
AtlasDetectorID      INFO initialize_from_dictionary - OK
AtlasDetectorID      INFO initialize_from_dictionary - OK
LArHVLineIDDetD...   INFO in createObj: creating a LArHVLineID helper object in the detector store
LArHVLineID          INFO  => initialize_from_dictionary()
AtlasDetectorID      INFO initialize_from_dictionary - OK
AtlasDetectorID      INFO initialize_from_dictionary - OK
LArHVLineID          INFO  => initialize_from_dictionary(dict_mgr) =0
LArHVLineID          INFO Register_dict_tag of LArHighVoltage is OK
LArHVLineID          INFO setDictVersion of LArHighVoltage is OK
LArHVLineID          INFO [initLevelsFromDict] m_dict OK ... 
LArHVLineID          INFO [initialize_from_dictionary] >  HV line range -> 11/1/48:79/0:15 | 11/1/148:179/0:15 | 11/1/80:93/0:7 | 11/1/180:193/0:7 | 11/1/200:231/0:15 | 11/1/232:263/0:15 | 11/1/296,297,306,307/0:15 | 11/1/299,304,305,308,309/0:15 | 11/1/264:279/0:15 | 11/1/280:295/0:15 | 11/1/0:47/0:15 | 11/1/320:322/0:15 | 11/1/100:147/0:15 | 11/1/324,325/0:15 | 11/1/312:315/0:15 | 11/1/316:319/0:15 | 11/1/300:303/0:15 | 11/1/310,311/0:15 | 11/1/323/0:15 | 11/1/326,327/0:15 | 11/1/94:99/0:15 | 11/1/194:199/0:15
LArHVLineID          INFO [init_hashes()] > Hvline_size= 5008
GeoModelSvc.LAr...   INFO Keys for LAr are ATLAS-R1-2012-03-01-00  ATLAS
GeoModelSvc.LAr...   INFO Building LAr version LAr-Revised-14 while ATLAS version is ATLAS-R1-2012-03-01-00
GeoModelSvc.LAr...   INFO LAr Geometry Options:
GeoModelSvc.LAr...   INFO   Sagging           = false
GeoModelSvc.LAr...   INFO   Barrel            = ON
GeoModelSvc.LAr...   INFO   Endcap            = ON
LAr::DetectorFa...   INFO  new description with barrel croystat bolts
LAr::DetectorFa...   INFO  new coil bumper description 
BarrelConstruction   INFO Getting primary numbers for ATLAS, ATLAS-R1-2012-03-01-00
BarrelConstruction   INFO   Makes detailed absorber sandwich  ? 1 1
BarrelConstruction   INFO   Use sagging in geometry  ? 0
EMECConstruction     INFO multi-layered version of absorbers activated, parameter value is 1
EMECConstruction     INFO activating LAr::EMEC::Pos::InnerWheel
EMECConstruction     INFO activating LAr::EMEC::Pos::OuterWheel
ClassIDSvc           INFO  getRegistryEntries: read 2898 CLIDRegistry entries for module ALL
CaloIDHelper_ID...   INFO in createObj: creating a TileTBID helper object in the detector store
TileTBID             INFO initialize_from_dictionary 
AtlasDetectorID      INFO initialize_from_dictionary - OK
EndcapDMConstru...   INFO Start building EC electronics geometry
<<<<<<< HEAD
EMECConstruction     INFO multi-layered version of absorbers activated, parameter value is 1
EMECConstruction     INFO activating LAr::EMEC::Neg::InnerWheel
EMECConstruction     INFO activating LAr::EMEC::Neg::OuterWheel
EndcapDMConstru...   INFO Start building EC electronics geometry
GeoModelSvc          INFO GeoModelSvc.LArDetectorToolNV	 SZ= 53016Kb 	 Time = 1.25S
GeoModelSvc.Til...   INFO  Entering TileDetectorTool::create()
TileDddbManager      INFO m_tag = ATLAS-R1-2012-03-01-00
TileDddbManager      INFO n_tiglob = 5
TileDddbManager      INFO n_timod = 320
TileDddbManager      INFO n_cuts = 9
TileDddbManager      INFO n_saddle = 1
TileDddbManager      INFO n_tilb = 20
TileDddbManager      INFO n_tileSwitches = 1
CaloIDHelper_ID...   INFO in createObj: creating a TileID helper object in the detector store
AtlasDetectorID      INFO initialize_from_dictionary - OK
TileNeighbour        INFO Reading file  /cvmfs/atlas-nightlies.cern.ch/repo/sw/master/2019-08-05T2130/Athena/22.0.3/InstallArea/x86_64-centos7-gcc8-opt/share/TileNeighbour_reduced.txt
TileHWIDDetDesc...   INFO in createObj: creating a TileHWID helper object in the detector store
TileHWID             INFO initialize_from_dictionary 
AtlasDetectorID      INFO initialize_from_dictionary - OK
ClassIDSvc           INFO  getRegistryEntries: read 55 CLIDRegistry entries for module ALL
=======
============== EMEC Construction ===============
  multi-layered version of absorbers activated, mlabs == 1
================================================
EndcapDMConstru...   INFO Start building EC electronics geometry
GeoModelSvc          INFO GeoModelSvc.LArDetectorToolNV	 SZ= 47796Kb 	 Time = 7.11S
GeoModelSvc.Til...   INFO  Entering TileDetectorTool::create()
GeoModelSvc.Til...   INFO TileDddbManager: m_tag = ATLAS-R1-2012-03-01-00
GeoModelSvc.Til...   INFO TileDddbManager: n_tiglob = 5
GeoModelSvc.Til...   INFO TileDddbManager: n_timod = 320
GeoModelSvc.Til...   INFO TileDddbManager: n_cuts = 9
GeoModelSvc.Til...   INFO TileDddbManager: n_saddle = 1
GeoModelSvc.Til...   INFO TileDddbManager: n_tilb = 20
GeoModelSvc.Til...   INFO TileDddbManager: n_tileSwitches = 1
ClassIDSvc           INFO  getRegistryEntries: read 107 CLIDRegistry entries for module ALL
CaloIDHelper_ID...   INFO in createObj: creating a TileID helper object in the detector store
AtlasDetectorID      INFO initialize_from_dictionary - OK
TileNeighbour        INFO Reading file  /afs/cern.ch/atlas/software/builds/nightlies/devval/AtlasConditions/rel_1/InstallArea/x86_64-slc6-gcc49-dbg/share/TileNeighbour_reduced.txt
>>>>>>> release/21.0.127
CaloIDHelper_ID...   INFO in createObj: creating a CaloCell_ID helper object in the detector store
CaloIDHelper_ID...   INFO in createObj: creating a LArEM_ID helper object in the detector store
AtlasDetectorID      INFO initialize_from_dictionary - OK
CaloIDHelper_ID...   INFO in createObj: creating a LArHEC_ID helper object in the detector store
AtlasDetectorID      INFO initialize_from_dictionary - OK
CaloIDHelper_ID...   INFO in createObj: creating a LArFCAL_ID helper object in the detector store
AtlasDetectorID      INFO initialize_from_dictionary - OK
<<<<<<< HEAD
LArFCAL_Base_ID      INFO Reading file /cvmfs/atlas-nightlies.cern.ch/repo/sw/master/2019-08-05T2130/Athena/22.0.3/InstallArea/x86_64-centos7-gcc8-opt/share/FCal2DNeighbors-April2011.txt
LArFCAL_Base_ID      INFO Reading file /cvmfs/atlas-nightlies.cern.ch/repo/sw/master/2019-08-05T2130/Athena/22.0.3/InstallArea/x86_64-centos7-gcc8-opt/share/FCal3DNeighborsNext-April2011.txt
LArFCAL_Base_ID      INFO Reading file /cvmfs/atlas-nightlies.cern.ch/repo/sw/master/2019-08-05T2130/Athena/22.0.3/InstallArea/x86_64-centos7-gcc8-opt/share/FCal3DNeighborsPrev-April2011.txt
=======
LArFCAL_Base_ID      INFO Reading file /afs/cern.ch/atlas/software/builds/nightlies/devval/AtlasConditions/rel_1/InstallArea/x86_64-slc6-gcc49-dbg/share/FCal2DNeighbors-April2011.txt
LArFCAL_Base_ID      INFO Reading file /afs/cern.ch/atlas/software/builds/nightlies/devval/AtlasConditions/rel_1/InstallArea/x86_64-slc6-gcc49-dbg/share/FCal3DNeighborsNext-April2011.txt
LArFCAL_Base_ID      INFO Reading file /afs/cern.ch/atlas/software/builds/nightlies/devval/AtlasConditions/rel_1/InstallArea/x86_64-slc6-gcc49-dbg/share/FCal3DNeighborsPrev-April2011.txt
>>>>>>> release/21.0.127
CaloIDHelper_ID...   INFO in createObj: creating a LArMiniFCAL_ID helper object in the detector store
AtlasDetectorID      INFO initialize_from_dictionary - OK
LArMiniFCAL_ID       INFO  initialize_from_dict - LArCalorimeter dictionary does NOT contain miniFCAL description. Unable to initialize LArMiniFCAL_ID.
AtlasDetectorID      INFO initialize_from_dictionary - OK
<<<<<<< HEAD
GeoModelSvc.Til...   INFO  U-shape parameter from database is: 1
GeoModelSvc.Til...   INFO  Glue parameter from database is: 1
GeoModelSvc.Til...   INFO  Cs Tube parameter from database is: 0
=======
TileHWIDDetDesc...   INFO in createObj: creating a TileHWID helper object in the detector store
TileHWID             INFO initialize_from_dictionary 
AtlasDetectorID      INFO initialize_from_dictionary - OK
GeoModelSvc.Til...   INFO  U-shape parameter from database is: 1
>>>>>>> release/21.0.127
GeoModelSvc.Til...   INFO  Entering TileAtlasFactory::create()
GeoModelSvc.Til...   INFO  Tile Geometry with Saddle supports, starting from TileCal-CSC-02 xxx
GeoModelSvc.Til...   INFO  => New BFingerLengthPos 430.5
GeoModelSvc.Til...   INFO  => New BFingerLengthNeg 420.5
GeoModelSvc.Til...   INFO  Positioning barrel with translation 0
GeoModelSvc.Til...   INFO  Positioning positive barrel finger with translation 3035.25
GeoModelSvc.Til...   INFO  Positioning negative barrel finger with translation -3030.25
GeoModelSvc.Til...   INFO  Positioning positive ext.barrel with translation 4854.75
GeoModelSvc.Til...   INFO  Positioning positive ext.barrel finger with translation ztrans= 6338.5
GeoModelSvc.Til...   INFO  Positioning positive ext.barrel saddle with translation ztrans= 6192.5
GeoModelSvc.Til...   INFO  Positive ITC envelope parameters: PLUG1  Rmin= 3438.85 Rmax= 4250 dzITC1= 154.5
GeoModelSvc.Til...   INFO                                    PLUG2  Rmin= 2981 Rmax= 3440 dzITC2= 47.425
GeoModelSvc.Til...   INFO  Positioning positive ITC with translation 3405
GeoModelSvc.Til...   INFO  Positioning positive Gap with translation 3552
GeoModelSvc.Til...   INFO  Positioning positive Crack with translation 3536
GeoModelSvc.Til...   INFO  Positioning negative ext.barrel with translation ztrans -4854.75
GeoModelSvc.Til...   INFO  Positioning negative ext.barrel finger with translation ztrans= -6338.5
GeoModelSvc.Til...   INFO  Positioning negative ext.barrel saddle with translation ztrans= -6192.5
GeoModelSvc.Til...   INFO  Negative ITC envelope parameters: PLUG1  Rmin= 3438.85 Rmax= 4250 dzITC1= 154.5
GeoModelSvc.Til...   INFO                                    PLUG2  Rmin= 2981 Rmax= 3440 dzITC2= 47.425
GeoModelSvc.Til...   INFO  Positioning negative ITC with translation -3405
GeoModelSvc.Til...   INFO  Positioning negative Gap with translation -3552
GeoModelSvc.Til...   INFO  Positioning negative Crack with translation -3536
<<<<<<< HEAD
GeoModelSvc.Til...   INFO  Global positioning of barrel with rotation (0,0,0)) and translation (0,0,0) Gaudi::Units::cm
GeoModelSvc.Til...   INFO  Global positioning of positive ext.barrel with rotation (0,0,0)) and translation (0,0,0) Gaudi::Units::cm
GeoModelSvc.Til...   INFO  Global positioning of negative ext.barrel with rotation (0,0,0)) and translation (0,0,1) Gaudi::Units::cm
TileDetDescrMan...   INFO Entering create_elements()
GeoModelSvc          INFO GeoModelSvc.TileDetectorTool	 SZ= 17912Kb 	 Time = 0.26S
ClassIDSvc           INFO  getRegistryEntries: read 66 CLIDRegistry entries for module ALL
AthenaEventLoopMgr   INFO Initializing AthenaEventLoopMgr - package version AthenaServices-00-00-00
CondInputLoader      INFO Initializing CondInputLoader...
CondInputLoader      INFO Adding base classes:
CondInputLoader      INFO Will create WriteCondHandle dependencies for the following DataObjects:
=======
GeoModelSvc.Til...   INFO  Global positioning of barrel with rotation (0,0,0)) and translation (0,0,0) CLHEP::cm
GeoModelSvc.Til...   INFO  Global positioning of positive ext.barrel with rotation (0,0,0)) and translation (0,0,0) CLHEP::cm
GeoModelSvc.Til...   INFO  Global positioning of negative ext.barrel with rotation (0,0,0)) and translation (0,0,1) CLHEP::cm
GeoModelSvc.Til...   INFO  TileDetDescrManager: entering create_elements() 
GeoModelSvc          INFO GeoModelSvc.TileDetectorTool	 SZ= 14852Kb 	 Time = 3.24S
CORAL/Services/ConnectionService Info User session with sessionID=S#3(C#6.s#1) will be ended on connectionID=C#6
CORAL/Services/ConnectionService Info Connection to service "ATLF/()" with connectionID=C#6 will be disconnected
ClassIDSvc           INFO  getRegistryEntries: read 6 CLIDRegistry entries for module ALL
ClassIDSvc           INFO  getRegistryEntries: read 61 CLIDRegistry entries for module ALL
AthenaEventLoopMgr   INFO Initializing AthenaEventLoopMgr - package version AthenaServices-01-60-14
AthMasterSeq         INFO Member list: AthSequencer/AthAlgSeq, AthSequencer/AthOutSeq, AthSequencer/AthRegSeq
AthAlgSeq            INFO Member list: PyAthena::Alg/dumper
>>>>>>> release/21.0.127
PyComponentMgr       INFO Initializing PyComponentMgr...
dumper               INFO Initializing dumper...
HistogramPersis...WARNING Histograms saving not required.
AthenaEventLoopMgr   INFO Setup EventSelector service EventSelector
<<<<<<< HEAD
=======
ActiveStoreSvc       INFO Initializing ActiveStoreSvc - package version StoreGate-03-06-43
>>>>>>> release/21.0.127
ApplicationMgr       INFO Application Manager Initialized successfully
/cvmfs/atlas-ni...   INFO Database being retired...
Domain[ROOT_All]     INFO ->  Deaccess DbDatabase   READ      [ROOT_All] 54C1827D-740E-DE11-83C7-000423D9A21A
Domain[ROOT_All]     INFO >   Deaccess DbDomain     READ      [ROOT_All] 
DbSession            INFO     Open     DbSession    
Domain[ROOT_All]     INFO >   Access   DbDomain     READ      [ROOT_All] 
Domain[ROOT_All]     INFO ->  Access   DbDatabase   READ      [ROOT_All] 54C1827D-740E-DE11-83C7-000423D9A21A
Domain[ROOT_All]     INFO                           /cvmfs/atlas-nightlies.cern.ch/repo/data/data-art/aod/AOD-15.1.0/AOD-15.1.0-full.pool.root
RootDatabase.open    INFO /cvmfs/atlas-nightlies.cern.ch/repo/data/data-art/aod/AOD-15.1.0/AOD-15.1.0-full.pool.root File version:52200
PoolSvc              INFO Failed to find container POOLContainer(DataHeader) to create POOL collection.
<<<<<<< HEAD
=======
ImplicitCollection Info Opened the implicit collection with connection string "PFN:/afs/cern.ch/atlas/maxidisk/d33/referencefiles/aod/AOD-15.1.0/AOD-15.1.0-full.pool.root"
ImplicitCollection Info and a name "POOLContainer_DataHeader"
StoreGateSvc         INFO Start StoreGateSvc
ConditionStore       INFO Start ConditionStore
DetectorStore        INFO Start DetectorStore
>>>>>>> release/21.0.127
ApplicationMgr       INFO Application Manager Started successfully
ClassIDSvc           INFO  getRegistryEntries: read 892 CLIDRegistry entries for module ALL
AlgResourcePool      INFO TopAlg list empty. Recovering the one of Application Manager
ClassIDSvc           INFO  getRegistryEntries: read 20 CLIDRegistry entries for module ALL
ClassIDSvc           INFO  getRegistryEntries: read 3 CLIDRegistry entries for module ALL
ClassIDSvc           INFO  getRegistryEntries: read 22 CLIDRegistry entries for module ALL
ClassIDSvc           INFO  getRegistryEntries: read 39 CLIDRegistry entries for module ALL
ClassIDSvc           INFO  getRegistryEntries: read 5 CLIDRegistry entries for module ALL
AthenaPoolConve...   INFO massageEventInfo: unable to get OverrideRunNumberFromInput property from EventSelector 
AthenaEventLoopMgr   INFO   ===>>>  start of run 5200    <<<===
EventPersistenc...   INFO Added successfully Conversion service:TagInfoMgr
IOVDbSvc             INFO Global tag: OFLCOND-SIM-00-00-00 set from input file
IOVDbSvc             INFO Opening COOL connection for COOLOFL_LAR/OFLP200
<<<<<<< HEAD
IOVDbFolder          INFO HVS tag OFLCOND-SIM-00-00-00 resolved to LARAlign_CSC_00 for folder /LAR/Align
IOVDbFolder          INFO HVS tag OFLCOND-SIM-00-00-00 resolved to LArCellPositionShift-ideal for folder /LAR/LArCellPositionShift
IOVDbSvc             INFO Disconnecting from COOLOFL_LAR/OFLP200
Domain[ROOT_All]     INFO ->  Access   DbDatabase   READ      [ROOT_All] E01BD448-BF95-DB11-983E-0015C5098AA3
Domain[ROOT_All]     INFO                           /cvmfs/atlas-condb.cern.ch/repo/conditions/oflcond/oflcond.000002.conditions.simul.pool.v0000/oflcond.000002.conditions.simul.pool.v0000._0058.pool.root
RootDatabase.open    INFO /cvmfs/atlas-condb.cern.ch/repo/conditions/oflcond/oflcond.000002.conditions.simul.pool.v0000/oflcond.000002.conditions.simul.pool.v0000._0058.pool.root File version:51304
=======
RalSessionMgr Info Instantiate a R/O RalSessionMgr for 'COOLOFL_LAR/OFLP200'
RalSessionMgr Info Connect to the database server
CORAL/Services/ConnectionService Info Re-ordering 3 replicas using installed algorithm
CORAL/Services/ConnectionService Info Sorting algorithm selected 4 replicas
CORAL/Services/ConnectionService Warning Failed to connect to service sqlite200/ALLP200.db (coral::Exception): 'CORAL/RelationalPlugins/sqlite ( CORAL : "Connection::connect" from "/afs/cern.ch/work/s/ssnyder/builds/atlas-work3e/build-x86_64-slc6-gcc49-dbg/Calorimeter/CaloCnv/CaloAthenaPool/unitTestRun/CaloTPCnv_15.1.0/sqlite200 is not writable" )' - do NOT retry
CORAL/Services/ConnectionService Info Connection to service "sqlite200/ALLP200.db" with connectionID=C#7 will be disconnected
CORAL/Services/ConnectionService Warning Failure while attempting to connect to "sqlite_file:sqlite200/ALLP200.db": CORAL/RelationalPlugins/sqlite ( CORAL : "Connection::connect" from "/afs/cern.ch/work/s/ssnyder/builds/atlas-work3e/build-x86_64-slc6-gcc49-dbg/Calorimeter/CaloCnv/CaloAthenaPool/unitTestRun/CaloTPCnv_15.1.0/sqlite200 is not writable" )
CORAL/RelationalPlugins/frontier Info The current compresion level is 5
CORAL/Services/ConnectionService Info New connection to service "ATLF/()" with connectionID=C#8 has been connected
CORAL/Services/ConnectionService Info New user session with sessionID=S#4(C#8.s#1) started on connectionID=C#8 to service "ATLF/()" for user "" in read-only mode
RalSessionMgr Info Start a read-only transaction active for the duration of the database connection
RelationalDatabase Info Instantiate a R/O RalDatabase for 'COOLOFL_LAR/OFLP200'
RelationalDatabase Info Release number backward compatibility - NO SCHEMA EVOLUTION REQUIRED: database with OLDER release number 2.7.0 will be opened using CURRENT client release number 3.1.3
IOVDbSvc             INFO HVS tag OFLCOND-SIM-00-00-00 resolved to LARAlign_CSC_00 for folder /LAR/Align
IOVDbSvc             INFO HVS tag OFLCOND-SIM-00-00-00 resolved to LArCellPositionShift-ideal for folder /LAR/LArCellPositionShift
IOVDbSvc             INFO Disconnecting from COOLOFL_LAR/OFLP200
RalSessionMgr Info Commit the read-only transaction active for the duration of the database connection
RalSessionMgr Info Disconnect from the database server
CORAL/Services/ConnectionService Info User session with sessionID=S#4(C#8.s#1) will be ended on connectionID=C#8
CORAL/Services/ConnectionService Info Connection to service "ATLF/()" with connectionID=C#8 will be disconnected
RelationalDatabase Info Delete the RalDatabase for 'COOLOFL_LAR/OFLP200'
RalSessionMgr Info Delete the RalSessionMgr for 'COOLOFL_LAR/OFLP200'
DbSession Info     Open     DbSession    
Domain[ROOT_All] Info >   Access   DbDomain     READ      [ROOT_All] 
Domain[ROOT_All] Info ->  Access   DbDatabase   READ      [ROOT_All] E01BD448-BF95-DB11-983E-0015C5098AA3
Domain[ROOT_All] Info                           /afs/cern.ch/atlas/conditions/poolcond/vol0/oflcond.000002.conditions.simul.pool.v0000/oflcond.000002.conditions.simul.pool.v0000._0058.pool.root
RootDatabase.open Success /afs/cern.ch/atlas/conditions/poolcond/vol0/oflcond.000002.conditions.simul.pool.v0000/oflcond.000002.conditions.simul.pool.v0000._0058.pool.root File version:51304
>>>>>>> release/21.0.127
GeoModelSvc       WARNING *** *** Geometry configured through jobOptions does not match TagInfo tags! *** ***
GeoModelSvc          INFO ** Job Option configuration: 
GeoModelSvc          INFO * ATLAS tag: ATLAS-R1-2012-03-01-00
GeoModelSvc          INFO * InDet tag: 
GeoModelSvc          INFO * Pixel tag: 
GeoModelSvc          INFO * SCT   tag: 
GeoModelSvc          INFO * TRT   tag: 
GeoModelSvc          INFO * LAr   tag: 
GeoModelSvc          INFO * Tile  tag: 
GeoModelSvc          INFO * Muon  tag: 
GeoModelSvc          INFO * Calo  tag: 
GeoModelSvc          INFO * MagField  tag: 
GeoModelSvc          INFO * CavernInfra  tag: 
GeoModelSvc          INFO * ForwardDetectors  tag: 
GeoModelSvc          INFO ** TAG INFO configuration: 
GeoModelSvc          INFO * ATLAS tag: ATLAS-GEO-02-01-00
CaloMgrDetDescrCnv   INFO in createObj: creating a Calo Detector Manager object in the detector store
CaloIdMgrDetDes...   INFO in createObj: creating a CaloDescrManager object in the detector store
<<<<<<< HEAD
ClassIDSvc           INFO  getRegistryEntries: read 208 CLIDRegistry entries for module ALL
=======
ClassIDSvc           INFO  getRegistryEntries: read 807 CLIDRegistry entries for module ALL
>>>>>>> release/21.0.127
CaloIDHelper_ID...   INFO in createObj: creating a CaloDM_ID helper object in the detector store
CaloDM_ID            INFO initialize_from_dictionary
AtlasDetectorID      INFO initialize_from_dictionary - OK
CaloIDHelper_ID...   INFO in createObj: creating a CaloLVL1_ID helper object in the detector store
CaloLVL1_ID          INFO initialize_from_dictionary
AtlasDetectorID      INFO initialize_from_dictionary - OK
CaloIDHelper_ID...   INFO in createObj: creating a TTOnlineID helper object in the detector store
TTOnlineID           INFO initialize_from_dictionary
AtlasDetectorID      INFO initialize_from_dictionary - OK
CaloIDHelper_ID...   INFO in createObj: creating a CaloCell_SuperCell_ID helper object in the detector store
CaloIDHelper_ID...   INFO in createObj: creating a LArEM_SuperCell_ID helper object in the detector store
AtlasDetectorID      INFO initialize_from_dictionary - OK
CaloIDHelper_ID...   INFO in createObj: creating a LArHEC_SuperCell_ID helper object in the detector store
AtlasDetectorID      INFO initialize_from_dictionary - OK
CaloIDHelper_ID...   INFO in createObj: creating a LArFCAL_SuperCell_ID helper object in the detector store
AtlasDetectorID      INFO initialize_from_dictionary - OK
<<<<<<< HEAD
LArFCAL_Base_ID      INFO Reading file /cvmfs/atlas-nightlies.cern.ch/repo/sw/master/2019-08-05T2130/Athena/22.0.3/InstallArea/x86_64-centos7-gcc8-opt/share/FCalSuperCells2DNeighborsNew-April2014.txt
LArFCAL_Base_ID      INFO Reading file /cvmfs/atlas-nightlies.cern.ch/repo/sw/master/2019-08-05T2130/Athena/22.0.3/InstallArea/x86_64-centos7-gcc8-opt/share/FCalSuperCells3DNeighborsNextNew-April2014.txt
LArFCAL_Base_ID      INFO Reading file /cvmfs/atlas-nightlies.cern.ch/repo/sw/master/2019-08-05T2130/Athena/22.0.3/InstallArea/x86_64-centos7-gcc8-opt/share/FCalSuperCells3DNeighborsPrevNew-April2014.txt
CaloIDHelper_ID...   INFO in createObj: creating a Tile_SuperCell_ID helper object in the detector store
AtlasDetectorID      INFO initialize_from_dictionary - OK
TileNeighbour        INFO Reading file  /cvmfs/atlas-nightlies.cern.ch/repo/sw/master/2019-08-05T2130/Athena/22.0.3/InstallArea/x86_64-centos7-gcc8-opt/share/TileSuperCellNeighbour.txt
AtlasDetectorID      INFO initialize_from_dictionary - OK
CaloIdMgrDetDes...   INFO  Finished 
CaloIdMgrDetDes...   INFO Initializing CaloIdMgr from values in CaloIdMgrDetDescrCnv 
Domain[ROOT_All]     INFO ->  Access   DbDatabase   READ      [ROOT_All] 8667C6F2-1559-DE11-A611-000423D9A21A
Domain[ROOT_All]     INFO                           /cvmfs/atlas-condb.cern.ch/repo/conditions/cond08/cond08_mc.000003.gen.COND/cond08_mc.000003.gen.COND._0064.pool.root
RootDatabase.open    INFO /cvmfs/atlas-condb.cern.ch/repo/conditions/cond08/cond08_mc.000003.gen.COND/cond08_mc.000003.gen.COND._0064.pool.root File version:52200
AthenaEventLoopMgr   INFO   ===>>>  start processing event #30002, run #5200 0 events processed so far  <<<===
ClassIDSvc           INFO  getRegistryEntries: read 671 CLIDRegistry entries for module ALL
ClassIDSvc           INFO  getRegistryEntries: read 266 CLIDRegistry entries for module ALL
=======
LArFCAL_Base_ID      INFO Reading file /afs/cern.ch/atlas/software/builds/nightlies/devval/AtlasConditions/rel_1/InstallArea/x86_64-slc6-gcc49-dbg/share/FCalSuperCells2DNeighborsNew-April2014.txt
LArFCAL_Base_ID      INFO Reading file /afs/cern.ch/atlas/software/builds/nightlies/devval/AtlasConditions/rel_1/InstallArea/x86_64-slc6-gcc49-dbg/share/FCalSuperCells3DNeighborsNextNew-April2014.txt
LArFCAL_Base_ID      INFO Reading file /afs/cern.ch/atlas/software/builds/nightlies/devval/AtlasConditions/rel_1/InstallArea/x86_64-slc6-gcc49-dbg/share/FCalSuperCells3DNeighborsPrevNew-April2014.txt
CaloIDHelper_ID...   INFO in createObj: creating a Tile_SuperCell_ID helper object in the detector store
AtlasDetectorID      INFO initialize_from_dictionary - OK
TileNeighbour        INFO Reading file  /afs/cern.ch/atlas/software/builds/nightlies/devval/AtlasConditions/rel_1/InstallArea/x86_64-slc6-gcc49-dbg/share/TileSuperCellNeighbour.txt
AtlasDetectorID      INFO initialize_from_dictionary - OK
CaloIdMgrDetDes...   INFO  Finished 
CaloIdMgrDetDes...   INFO Initializing CaloIdMgr from values in CaloIdMgrDetDescrCnv 
CORAL/Services/ConnectionService Info Re-ordering 3 replicas using installed algorithm
CORAL/Services/ConnectionService Info Sorting algorithm selected 4 replicas
CORAL/Services/ConnectionService Warning Failed to connect to service geomDB/geomDB_sqlite (coral::Exception): 'CORAL/RelationalPlugins/sqlite ( CORAL : "Connection::connect" from "/afs/cern.ch/work/s/ssnyder/builds/atlas-work3e/build-x86_64-slc6-gcc49-dbg/Calorimeter/CaloCnv/CaloAthenaPool/unitTestRun/CaloTPCnv_15.1.0/geomDB is not writable" )' - do NOT retry
CORAL/Services/ConnectionService Info Connection to service "geomDB/geomDB_sqlite" with connectionID=C#9 will be disconnected
CORAL/Services/ConnectionService Warning Failure while attempting to connect to "sqlite_file:geomDB/geomDB_sqlite": CORAL/RelationalPlugins/sqlite ( CORAL : "Connection::connect" from "/afs/cern.ch/work/s/ssnyder/builds/atlas-work3e/build-x86_64-slc6-gcc49-dbg/Calorimeter/CaloCnv/CaloAthenaPool/unitTestRun/CaloTPCnv_15.1.0/geomDB is not writable" )
CORAL/RelationalPlugins/frontier Info The current compresion level is 5
CORAL/Services/ConnectionService Info New connection to service "ATLF/()" with connectionID=C#10 has been connected
CORAL/Services/ConnectionService Info New user session with sessionID=S#5(C#10.s#1) started on connectionID=C#10 to service "ATLF/()" for user "" in read-only mode
CORAL/Services/ConnectionService Info User session with sessionID=S#5(C#10.s#1) will be ended on connectionID=C#10
CORAL/Services/ConnectionService Info Connection to service "ATLF/()" with connectionID=C#10 will be disconnected
Domain[ROOT_All] Info ->  Access   DbDatabase   READ      [ROOT_All] 8667C6F2-1559-DE11-A611-000423D9A21A
Domain[ROOT_All] Info                           /afs/cern.ch/atlas/conditions/poolcond/vol0/cond08_mc.000003.gen.COND/cond08_mc.000003.gen.COND._0064.pool.root
RootDatabase.open Success /afs/cern.ch/atlas/conditions/poolcond/vol0/cond08_mc.000003.gen.COND/cond08_mc.000003.gen.COND._0064.pool.root File version:52200
AthenaEventLoopMgr   INFO   ===>>>  start processing event #30002, run #5200 0 events processed so far  <<<===
ClassIDSvc           INFO  getRegistryEntries: read 204 CLIDRegistry entries for module ALL
ClassIDSvc           INFO  getRegistryEntries: read 242 CLIDRegistry entries for module ALL
>>>>>>> release/21.0.127
AthenaEventLoopMgr   INFO   ===>>>  done processing event #30002, run #5200 1 events processed so far  <<<===
AthenaEventLoopMgr   INFO   ===>>>  start processing event #30004, run #5200 1 events processed so far  <<<===
AthenaEventLoopMgr   INFO   ===>>>  done processing event #30004, run #5200 2 events processed so far  <<<===
AthenaEventLoopMgr   INFO   ===>>>  start processing event #30009, run #5200 2 events processed so far  <<<===
AthenaEventLoopMgr   INFO   ===>>>  done processing event #30009, run #5200 3 events processed so far  <<<===
AthenaEventLoopMgr   INFO   ===>>>  start processing event #30010, run #5200 3 events processed so far  <<<===
AthenaEventLoopMgr   INFO   ===>>>  done processing event #30010, run #5200 4 events processed so far  <<<===
AthenaEventLoopMgr   INFO   ===>>>  start processing event #30012, run #5200 4 events processed so far  <<<===
AthenaEventLoopMgr   INFO   ===>>>  done processing event #30012, run #5200 5 events processed so far  <<<===
AthenaEventLoopMgr   INFO   ===>>>  start processing event #30013, run #5200 5 events processed so far  <<<===
AthenaEventLoopMgr   INFO   ===>>>  done processing event #30013, run #5200 6 events processed so far  <<<===
AthenaEventLoopMgr   INFO   ===>>>  start processing event #30014, run #5200 6 events processed so far  <<<===
AthenaEventLoopMgr   INFO   ===>>>  done processing event #30014, run #5200 7 events processed so far  <<<===
AthenaEventLoopMgr   INFO   ===>>>  start processing event #30018, run #5200 7 events processed so far  <<<===
AthenaEventLoopMgr   INFO   ===>>>  done processing event #30018, run #5200 8 events processed so far  <<<===
AthenaEventLoopMgr   INFO   ===>>>  start processing event #30020, run #5200 8 events processed so far  <<<===
AthenaEventLoopMgr   INFO   ===>>>  done processing event #30020, run #5200 9 events processed so far  <<<===
AthenaEventLoopMgr   INFO   ===>>>  start processing event #30022, run #5200 9 events processed so far  <<<===
AthenaEventLoopMgr   INFO   ===>>>  done processing event #30022, run #5200 10 events processed so far  <<<===
/cvmfs/atlas-ni...   INFO Database being retired...
Domain[ROOT_All]     INFO ->  Deaccess DbDatabase   READ      [ROOT_All] 54C1827D-740E-DE11-83C7-000423D9A21A
EventSelector        INFO Disconnecting input sourceID: 54C1827D-740E-DE11-83C7-000423D9A21A
AthenaEventLoopMgr   INFO No more events in event selection 
<<<<<<< HEAD
/cvmfs/atlas-co...   INFO Database being retired...
Domain[ROOT_All]     INFO ->  Deaccess DbDatabase   READ      [ROOT_All] E01BD448-BF95-DB11-983E-0015C5098AA3
/cvmfs/atlas-co...   INFO Database being retired...
Domain[ROOT_All]     INFO ->  Deaccess DbDatabase   READ      [ROOT_All] 8667C6F2-1559-DE11-A611-000423D9A21A
Domain[ROOT_All]     INFO >   Deaccess DbDomain     READ      [ROOT_All] 
=======
DetectorStore        INFO Stop DetectorStore
ConditionStore       INFO Stop ConditionStore
StoreGateSvc         INFO Stop StoreGateSvc
StoreGateSvc         INFO stop: setting service priority to 101 so that event stores get finalized and cleared before other stores
TagMetaDataStore     INFO Stop TagMetaDataStore
MetaDataStore        INFO Stop MetaDataStore
InputMetaDataStore   INFO Stop InputMetaDataStore
>>>>>>> release/21.0.127
ApplicationMgr       INFO Application Manager Stopped successfully
IncidentProcAlg1     INFO Finalize
CondInputLoader      INFO Finalizing CondInputLoader...
dumper               INFO Finalizing dumper...
<<<<<<< HEAD
IncidentProcAlg2     INFO Finalize
PyComponentMgr       INFO Finalizing PyComponentMgr...
IdDictDetDescrCnv    INFO in finalize
IOVDbFolder          INFO Folder /LAR/Align (PoolRef) db-read 1/1 objs/chan/bytes 1/1/168 ((     0.69 ))s
IOVDbFolder          INFO Folder /LAR/LArCellPositionShift (PoolRef) db-read 1/1 objs/chan/bytes 1/1/195 ((     0.02 ))s
IOVDbSvc             INFO  bytes in ((      0.71 ))s
IOVDbSvc             INFO Connection sqlite://;schema=mycool.db;dbname=OFLP200 : nConnect: 0 nFolders: 0 ReadTime: ((     0.00 ))s
IOVDbSvc             INFO Connection COOLOFL_LAR/OFLP200 : nConnect: 2 nFolders: 2 ReadTime: ((     0.71 ))s
XMLCatalog           INFO File 'PoolFileCatalog.xml' does not exist. New file created.
=======
AthAlgSeq            INFO Finalizing AthAlgSeq...
AthOutSeq            INFO Finalizing AthOutSeq...
AthRegSeq            INFO Finalizing AthRegSeq...
AthMasterSeq         INFO Finalizing AthMasterSeq...
StoreGateSvc         INFO Finalizing StoreGateSvc - package version StoreGate-03-06-43
PyComponentMgr       INFO Finalizing PyComponentMgr...
IdDictDetDescrCnv    INFO in finalize
DetectorStore        INFO Finalizing DetectorStore - package version StoreGate-03-06-43
ConditionStore       INFO Finalizing ConditionStore - package version StoreGate-03-06-43
IOVDbSvc             INFO Folder /LAR/Align (PoolRef) db-read 1/1 objs/chan/bytes 1/1/168 ((     0.66 ))s
IOVDbSvc             INFO Folder /LAR/LArCellPositionShift (PoolRef) db-read 1/1 objs/chan/bytes 1/1/195 ((     0.06 ))s
IOVDbSvc             INFO Total payload read from COOL: 363 bytes in ((      0.72 ))s
IOVDbSvc             INFO Connection sqlite://;schema=mycool.db;dbname=OFLP200 : nConnect: 0 nFolders: 0 ReadTime: ((     0.00 ))s
IOVDbSvc             INFO Connection COOLOFL_LAR/OFLP200 : nConnect: 2 nFolders: 2 ReadTime: ((     0.72 ))s
TagMetaDataStore     INFO Finalizing TagMetaDataStore - package version StoreGate-03-06-43
XMLFileCatalog Info Updating the catalog
PoolXMLFileCatalog Info XercesC termination number 0
PoolSvc              INFO I/O finalization...
MetaDataStore        INFO Finalizing MetaDataStore - package version StoreGate-03-06-43
InputMetaDataStore   INFO Finalizing InputMetaDataStore - package version StoreGate-03-06-43
>>>>>>> release/21.0.127
AthDictLoaderSvc     INFO in finalize...
ToolSvc              INFO Removing all tools created by ToolSvc
*****Chrono*****     INFO ****************************************************************************************************
*****Chrono*****     INFO  The Final CPU consumption ( Chrono ) Table (ordered)
*****Chrono*****     INFO ****************************************************************************************************
<<<<<<< HEAD
cObjR_ALL            INFO Time User   : Tot=  180 [ms] Ave/Min/Max= 1.11(+- 7.45)/    0/   90 [ms] #=162
cObj_ALL             INFO Time User   : Tot=  300 [ms] Ave/Min/Max= 1.85(+- 8.83)/    0/   90 [ms] #=162
ChronoStatSvc        INFO Time User   : Tot=  7.1  [s]                                             #=  1
=======
AthenaSealSvc::...   INFO Time User   : Tot=    0 [us]                                             #=  1
ChronoStatSvc        INFO Time User   : Tot= 47.7  [s]                                             #=  1
>>>>>>> release/21.0.127
*****Chrono*****     INFO ****************************************************************************************************
ChronoStatSvc.f...   INFO  Service finalized successfully 
ApplicationMgr       INFO Application Manager Finalized successfully
ApplicationMgr       INFO Application Manager Terminated successfully
Py:Athena            INFO leaving with code 0: "successful run"
